…
 
** What does 0.9448  in the output mean detail ? AI 


-->

```{r}
tidy(predictions(fit_call, type = "prob")) # to get help from AI 
```

<!-- 
# A tibble: 9,740 × 16
   rowid group estimate std.error statistic p.value s.value conf.low conf.high    df
   <int> <fct>    <dbl>     <dbl>     <dbl>   <dbl>   <dbl>    <dbl>     <dbl> <dbl>
 1     1 no       0.945   0.00633     149.        0     Inf    0.932     0.957   Inf
 2     2 no       0.936   0.00714     131.        0     Inf    0.922     0.950   Inf
 3     3 no       0.964   0.00454     212.        0     Inf    0.955     0.973   Inf
 4     4 no       0.911   0.00990      92.0       0     Inf    0.891     0.930   Inf
 5     5 no       0.936   0.00714     131.        0     Inf    0.922     0.950   Inf
 6     6 no       0.897   0.0159       56.4       0     Inf    0.866     0.928   Inf
 7     7 no       0.867   0.0131       66.3       0     Inf    0.841     0.893   Inf
 8     8 no       0.911   0.00990      92.0       0     Inf    0.891     0.930   Inf
 9     9 no       0.923   0.00920     100.        0     Inf    0.905     0.941   Inf
10    10 no       0.921   0.0125       73.6       0     Inf    0.896     0.945   Inf
# ℹ 9,730 more rows
# ℹ 6 more variables: call <fct>, gender <chr>, city <chr>, ethnicity <chr>,
#   special <chr>, quality <chr>
# ℹ Use `print(n = ...)` to see more rows
…
