Resume Experiment
…
Call:  stats::glm(formula = call ~ gender + city + ethnicity + special + 
    quality, family = stats::binomial, data = data)

Coefficients:
  (Intercept)     gendermale    citychicago  ethnicitycauc     specialyes  
      -2.6645        -0.1321        -0.4676         0.4477         0.8089  
   qualitylow  
      -0.1563  

Degrees of Freedom: 4869 Total (i.e. Null);  4864 Residual
Null Deviance:      2727 
Residual Deviance: 2633     AIC: 2645

# A tibble: 6 × 7
  term          estimate std.error statistic  p.value conf.low conf.high
  <chr>            <dbl>     <dbl>     <dbl>    <dbl>    <dbl>     <dbl>
1 (Intercept)     -2.66      0.129   -20.6   1.44e-94   -2.92    -2.42  
2 gendermale      -0.132     0.133    -0.993 3.21e- 1   -0.398    0.124 
3 citychicago     -0.468     0.108    -4.32  1.58e- 5   -0.680   -0.256 
4 ethnicitycauc    0.448     0.108     4.14  3.54e- 5    0.237    0.661 
5 specialyes       0.809     0.108     7.49  7.13e-14    0.597    1.02  
6 qualitylow      -0.156     0.107    -1.46  1.44e- 1   -0.367    0.0531

This is my data generating mechanism.

\[
\begin{equation}
\begin{aligned}
\text{logit}(\Pr(\text{call} = 1)) =
& -2.66
- 0.13 \cdot \text{gendermale}
- 0.47 \cdot \text{citychicago} \\
& + 0.45 \cdot \text{ethnicitycauc}
+ 0.81 \cdot \text{specialyes}
- 0.16 \cdot \text{qualitylow}
\end{aligned}
\end{equation}
\]

Temperance

What are the questions you want to answer?

How can you use the marginaleffects package to answer them?

 Group Estimate Std. Error      z Pr(>|z|)    S  2.5 % 97.5 %
   no    0.9448    0.00633 149.38   <0.001  Inf 0.9324 0.9572
   no    0.9361    0.00714 131.17   <0.001  Inf 0.9221 0.9501
   no    0.9640    0.00454 212.15   <0.001  Inf 0.9551 0.9729
   no    0.9108    0.00990  91.96   <0.001  Inf 0.8914 0.9302
   no    0.9361    0.00714 131.17   <0.001  Inf 0.9221 0.9501
--- 9730 rows omitted. See ?print.marginaleffects ---
   yes   0.1180    0.01350   8.74   <0.001 58.6 0.0915 0.1444
   yes   0.0562    0.00685   8.20   <0.001 51.9 0.0428 0.0696
   yes   0.0872    0.01122   7.77   <0.001 46.8 0.0652 0.1091
   yes   0.0651    0.00786   8.28   <0.001 52.9 0.0497 0.0805
   yes   0.0852    0.00943   9.04   <0.001 62.5 0.0668 0.1037
Type: prob

# A tibble: 9,740 × 16
   rowid group estimate std.error statistic p.value s.value conf.low conf.high
   <int> <fct>    <dbl>     <dbl>     <dbl>   <dbl>   <dbl>    <dbl>     <dbl>
 1     1 no       0.945   0.00633     149.        0     Inf    0.932     0.957
 2     2 no       0.936   0.00714     131.        0     Inf    0.922     0.950
 3     3 no       0.964   0.00454     212.        0     Inf    0.955     0.973
 4     4 no       0.911   0.00990      92.0       0     Inf    0.891     0.930
 5     5 no       0.936   0.00714     131.        0     Inf    0.922     0.950
 6     6 no       0.897   0.0159       56.4       0     Inf    0.866     0.928
 7     7 no       0.867   0.0131       66.3       0     Inf    0.841     0.893
 8     8 no       0.911   0.00990      92.0       0     Inf    0.891     0.930
 9     9 no       0.923   0.00920     100.        0     Inf    0.905     0.941
10    10 no       0.921   0.0125       73.6       0     Inf    0.896     0.945
# ℹ 9,730 more rows
# ℹ 7 more variables: df <dbl>, call <fct>, gender <chr>, city <chr>,
#   ethnicity <chr>, special <chr>, quality <chr>
…
